Lab07/ALUTest.vcd
$date
	Tue Oct 27 14:58:04 2020
$end
$version
	Icarus Verilog
$end
$timescale
	1ps
$end
$scope module ALUTest_v $end
$var wire 1 ! Zero $end
$var wire 64 " BusW [63:0] $end
$var reg 4 # ALUCtrl [3:0] $end
$var reg 64 $ BusA [63:0] $end
$var reg 64 % BusB [63:0] $end
$var reg 8 & passed [7:0] $end
$scope module uut $end
$var wire 4 ' ALUCtrl [3:0] $end
$var wire 64 ( BusA [63:0] $end
$var wire 64 ) BusB [63:0] $end
$var wire 1 ! Zero $end
$var reg 64 * BusW [63:0] $end
$upscope $end
$scope task allPassed $end
$var reg 8 + numTests [7:0] $end
$var reg 8 , passed [7:0] $end
$upscope $end
$scope task passTest $end
$var reg 65 - actualOut [64:0] $end
$var reg 65 . expectedOut [64:0] $end
$var reg 8 / passed [7:0] $end
$var reg 257 0 testType [256:0] $end
$upscope $end
$upscope $end
$enddefinitions $end
#0
$dumpvars
bx 0
bx /
bx .
bx -
bx ,
bx +
bx *
b100110000111 )
b100111 (
b0 '
b0 &
b100110000111 %
b100111 $
b0 #
bx "
x!
$end
#20000
b111 "
b111 *
#21000
0!
#40000
b1111111111111111 $
b1111111111111111 (
b0 %
b0 )
b1 &
b1 /
b100000101001110010001000010000000110000011110000011001000110111001011000011000001111000001110010011100000110111 0
b111 .
b111 -
#60000
b0 "
b0 *
#61000
1!
#80000
b1111111100001010 $
b1111111100001010 (
b1111111111111111 %
b1111111111111111 )
b10 &
b10 /
b100000101001110010001000010000000110000011110000100011001000110010001100100011000101100001100000111100000110000 0
b10000000000000000000000000000000000000000000000000000000000000000 .
b10000000000000000000000000000000000000000000000000000000000000000 -
#100000
b1111111100001010 "
b1111111100001010 *
#101000
0!
#120000
b1111111111111111 $
b1111111111111111 (
b1001000110100 %
b1001000110100 )
b1 #
b1 '
b11 &
b11 /
b100000101001110010001000010000000110000011110000100011001000110001100000100000100101100001100000111100001000110010001100100011001000110 0
b1111111100001010 .
b1111111100001010 -
#140000
b1111111111111111 "
b1111111111111111 *
#160000
b10010 $
b10010 (
b1001000000000 %
b1001000000000 )
b100 &
b100 /
b1001111010100100010000000110000011110000100011001000110010001100100011000101100001100000111100000110001001100100011001100110100 0
b1111111111111111 .
b1111111111111111 -
#180000
b1001000010010 "
b1001000010010 *
#200000
b1 $
b1 (
b1111000000000000 %
b1111000000000000 )
b101 &
b101 /
b100111101010010001000000011000001111000001100010011001000101100001100000111100000110001001100100011000000110000 0
b1001000010010 .
b1001000010010 -
#220000
b1111000000000001 "
b1111000000000001 *
#240000
b100111 $
b100111 (
b100110000111 %
b100110000111 )
b10 #
b10 '
b110 &
b110 /
b1001111010100100010000000110000011110000011000100101100001100000111100001000110001100000011000000110000 0
b1111000000000001 .
b1111000000000001 -
#260000
b100110101110 "
b100110101110 *
#280000
b1111111100000000 $
b1111111100000000 (
b11111111 %
b11111111 )
b111 &
b111 /
b100000101000100010001000010000000110000011110000011001000110111001011000011000001111000001110010011100000110111 0
b100110101110 .
b100110101110 -
#300000
b1111111111111111 "
b1111111111111111 *
#320000
b0 $
b0 (
b0 %
b0 )
b1000 &
b1000 /
b10000010100010001000100001000000011000001111000010001100100011000110000001100000010110000110000011110000100011001000110 0
b1111111111111111 .
b1111111111111111 -
#340000
b0 "
b0 *
#341000
1!
#360000
b10000110010 $
b10000110010 (
b10000110010 %
b10000110010 )
b110 #
b110 '
b1001 &
b1001 /
b100000101000100010001000010000000110000011110000011000000101100001100000111100000110000 0
b10000000000000000000000000000000000000000000000000000000000000000 .
b10000000000000000000000000000000000000000000000000000000000000000 -
#400000
b1111111100000000 $
b1111111100000000 (
b11111111 %
b11111111 )
b1010 &
b1010 /
b10100110101010101000010001000000011000001111000001101000011001100110010001011000011000001111000001101000011001100110010 0
#420000
b1111111000000001 "
b1111111000000001 *
#421000
0!
#440000
b101 $
b101 (
b100 %
b100 )
b1011 &
b1011 /
b101001101010101010000100010000000110000011110000011001000110111001011000011000001111000001110010011100000110111 0
b1111111000000001 .
b1111111000000001 -
#460000
b1 "
b1 *
#480000
b100001100010010 $
b100001100010010 (
b1101001 %
b1101001 )
b111 #
b111 '
b1100 &
b1100 /
b101001101010101010000100010000000110000011110000100011001000110001100000011000000101100001100000111100000110100 0
b1 .
b1 -
#500000
b1101001 "
b1101001 *
#520000
b10101000110 $
b10101000110 (
b0 %
b0 )
b1101 &
b1101 /
b101000001000001010100110101001101000010001000000011000001111000001101000011001100110001001100100010110000110000011110000011011000111001 0
b1101001 .
b1101001 -
#540000
b0 "
b0 *
#541000
1!
#560000
b1000000010011000 $
b1000000010011000 (
b1001000110100 %
b1001000110100 )
b1110 &
b1110 /
b10100000100000101010011010100110100001000100000001100000111100000110101001101000011011000101100001100000111100000110000 0
b10000000000000000000000000000000000000000000000000000000000000000 .
b10000000000000000000000000000000000000000000000000000000000000000 -
#580000
b1001000110100 "
b1001000110100 *
#581000
0!
#600000
b1111111111111111111111111111111111111111111111111111111111101101 $
b1111111111111111111111111111111111111111111111111111111111101101 (
b100 %
b100 )
b10 #
b10 '
b1111 &
b1111 /
b1010000010000010101001101010011010000100010000000110000011110000011100000110000001110010011100000101100001100000111100000110001001100100011001100110100 0
b1001000110100 .
b1001000110100 -
#620000
b1111111111111111111111111111111111111111111111111111111111110001 "
b1111111111111111111111111111111111111111111111111111111111110001 *
#640000
b1111111111111111111111111111111111111111111111111111111111111101 $
b1111111111111111111111111111111111111111111111111111111111111101 (
b1111111111111111111111111111111111111111111111111111111111111011 %
b1111111111111111111111111111111111111111111111111111111111111011 )
b10000 &
b10000 /
b1000001010001000100010000100000001011010011000100111001001011000010000000110100 0
b1111111111111111111111111111111111111111111111111111111111110001 .
b1111111111111111111111111111111111111111111111111111111111110001 -
#660000
b1111111111111111111111111111111111111111111111111111111111111000 "
b1111111111111111111111111111111111111111111111111111111111111000 *
#680000
b110 #
b110 '
b10001 &
b10001 /
b1000001010001000100010000100000001011010011001100101100001000000010110100110101 0
b1111111111111111111111111111111111111111111111111111111111111000 .
b1111111111111111111111111111111111111111111111111111111111111000 -
#700000
b10 "
b10 *
#720000
b10010 +
b10010 ,
b10010 &
b10010 /
b1010011010101010100001000100000001011010011001100101100001000000010110100110101 0
b10 .
b10 -
