Lab09/singlecycle.vcd
$date
	Tue Dec  1 13:41:04 2020
$end
$version
	Icarus Verilog
$end
$timescale
	1ps
$end
$scope module SingleCycleProcTest_v $end
$var wire 64 ! dMemOut [63:0] $end
$var wire 64 " currentPC [63:0] $end
$var reg 1 # CLK $end
$var reg 1 $ Reset_L $end
$var reg 8 % passed [7:0] $end
$var reg 64 & startPC [63:0] $end
$var reg 16 ' watchdog [15:0] $end
$scope module uut $end
$var wire 1 # CLK $end
$var wire 1 $ resetl $end
$var wire 64 ( startpc [63:0] $end
$var wire 1 ) zero $end
$var wire 1 * uncond_branch $end
$var wire 2 + signop [1:0] $end
$var wire 5 , rn [4:0] $end
$var wire 5 - rm [4:0] $end
$var wire 1 . regwrite $end
$var wire 64 / regoutB [63:0] $end
$var wire 64 0 regoutA [63:0] $end
$var wire 1 1 reg2loc $end
$var wire 5 2 rd [4:0] $end
$var wire 11 3 opcode [10:0] $end
$var wire 64 4 nextpc [63:0] $end
$var wire 1 5 memwrite $end
$var wire 1 6 memread $end
$var wire 1 7 mem2reg $end
$var wire 32 8 instruction [31:0] $end
$var wire 64 9 extimm [63:0] $end
$var wire 64 : dmemout [63:0] $end
$var wire 64 ; dataMUX [63:0] $end
$var wire 1 < branch $end
$var wire 1 = alusrc $end
$var wire 64 > aluout [63:0] $end
$var wire 4 ? aluctrl [3:0] $end
$var wire 64 @ ALUMUX [63:0] $end
$var reg 64 A currentpc [63:0] $end
$scope module ALU $end
$var wire 64 B BusB [63:0] $end
$var wire 1 ) Zero $end
$var wire 64 C BusA [63:0] $end
$var wire 4 D ALUCtrl [3:0] $end
$var reg 64 E BusW [63:0] $end
$upscope $end
$scope module DataMemory $end
$var wire 64 F Address [63:0] $end
$var wire 1 # Clock $end
$var wire 64 G WriteData [63:0] $end
$var wire 1 5 MemoryWrite $end
$var wire 1 6 MemoryRead $end
$var reg 64 H ReadData [63:0] $end
$scope task initset $end
$var reg 64 I addr [63:0] $end
$var reg 64 J data [63:0] $end
$upscope $end
$upscope $end
$scope module NextPClogic $end
$var wire 1 ) ALUZero $end
$var wire 64 K CurrentPC [63:0] $end
$var wire 1 L muxControl $end
$var wire 64 M shiftSignExt [63:0] $end
$var wire 64 N muxOutput [63:0] $end
$var wire 1 * Uncondbranch $end
$var wire 64 O SignExtImm64 [63:0] $end
$var wire 64 P NextPC [63:0] $end
$var wire 1 < Branch $end
$upscope $end
$scope module RegisterFile $end
$var wire 64 Q BusA [63:0] $end
$var wire 64 R BusB [63:0] $end
$var wire 64 S BusW [63:0] $end
$var wire 1 # Clk $end
$var wire 5 T RA [4:0] $end
$var wire 5 U RB [4:0] $end
$var wire 5 V RW [4:0] $end
$var wire 1 . RegWr $end
$upscope $end
$scope module SignExtender $end
$var wire 26 W Instr [25:0] $end
$var wire 2 X Ctrl [1:0] $end
$var wire 64 Y BusImm [63:0] $end
$var reg 64 Z result [63:0] $end
$upscope $end
$scope module control $end
$var wire 11 [ opcode [10:0] $end
$var reg 4 \ aluop [3:0] $end
$var reg 1 = alusrc $end
$var reg 1 < branch $end
$var reg 1 7 mem2reg $end
$var reg 1 6 memread $end
$var reg 1 5 memwrite $end
$var reg 1 1 reg2loc $end
$var reg 1 . regwrite $end
$var reg 2 ] signop [1:0] $end
$var reg 1 * uncond_branch $end
$upscope $end
$scope module imem $end
$var wire 64 ^ Address [63:0] $end
$var reg 32 _ Data [31:0] $end
$upscope $end
$upscope $end
$scope task allPassed $end
$var reg 8 ` numTests [7:0] $end
$var reg 8 a passed [7:0] $end
$upscope $end
$scope task passTest $end
$var reg 64 b actualOut [63:0] $end
$var reg 64 c expectedOut [63:0] $end
$var reg 8 d passed [7:0] $end
$var reg 257 e testType [256:0] $end
$upscope $end
$upscope $end
$enddefinitions $end
#0
$dumpvars
bx e
bx d
bx c
bx b
bx a
bx `
bx _
bx ^
bx ]
bx \
bx [
bx Z
bx Y
bx X
bx W
bx V
bx U
bx T
bx S
bx R
bx Q
bx P
bx O
bx N
bx M
xL
bx K
b0 J
b100000 I
bx H
bx G
bx F
bx E
bx D
bx C
bx B
bx A
bx @
bx ?
bx >
x=
x<
bx ;
bx :
bx 9
bx 8
x7
x6
x5
bx 4
bx 3
bx 2
x1
bx 0
bx /
x.
bx -
bx ,
bx +
x*
x)
b0 (
b0 '
b0 &
b0 %
1$
0#
bx "
bx !
$end
#60000
1#
#120000
b1 '
0#
#121000
0$
#180000
1#
#240000
b0 "
b0 A
b0 K
b0 ^
b10 '
0#
#241000
1$
#244000
b100 4
b100 P
b100 N
b0 @
b0 B
0L
b0 M
b0 9
b0 O
b0 Y
b0 Z
b1 +
b1 X
b1 ]
b10 ?
b10 D
b10 \
1.
1=
05
17
16
0<
0*
b0x00x ,
b0x00x U
b10000000000001111101001 W
b11111000010 3
b11111000010 [
b11111 -
b11111 T
b1001 2
b1001 V
b11111000010000000000001111101001 8
b11111000010000000000001111101001 _
#246000
b0 0
b0 C
b0 Q
#266000
b0 >
b0 E
b0 F
#267000
1)
#300000
1#
#320000
b1 ;
b1 S
b1 !
b1 :
b1 H
#360000
b1000 4
b1000 P
b100 "
b100 A
b100 K
b100 ^
b11 '
0#
#364000
b1000 @
b1000 B
b1000 M
b1000 9
b1000 O
b1000 Y
b1000 Z
b0x0x0 ,
b0x0x0 U
b10000001000001111101010 W
b1010 2
b1010 V
b11111000010000001000001111101010 8
b11111000010000001000001111101010 _
#384000
b1000 >
b1000 E
b1000 F
#385000
0)
#420000
1#
#440000
b1010 ;
b1010 S
b1010 !
b1010 :
b1010 H
#480000
b1100 4
b1100 P
b1000 "
b1000 A
b1000 K
b1000 ^
b100 '
0#
#484000
b10000 @
b10000 B
b10000 M
b10000 9
b10000 O
b10000 Y
b10000 Z
b0x0x1 ,
b0x0x1 U
b10000010000001111101011 W
b1011 2
b1011 V
b11111000010000010000001111101011 8
b11111000010000010000001111101011 _
#504000
b10000 >
b10000 E
b10000 F
#540000
1#
#560000
b101 ;
b101 S
b101 !
b101 :
b101 H
#600000
b10000 4
b10000 P
b1100 "
b1100 A
b1100 K
b1100 ^
b101 '
0#
#604000
b11000 @
b11000 B
b11000 M
b11000 9
b11000 O
b11000 Y
b11000 Z
b0xx0x ,
b0xx0x U
b10000011000001111101100 W
b1100 2
b1100 V
b11111000010000011000001111101100 8
b11111000010000011000001111101100 _
#624000
b11000 >
b11000 E
b11000 F
#660000
1#
#680000
b111111111011111010100111110111101010110110111110111011111111 ;
b111111111011111010100111110111101010110110111110111011111111 S
b111111111011111010100111110111101010110110111110111011111111 !
b111111111011111010100111110111101010110110111110111011111111 :
b111111111011111010100111110111101010110110111110111011111111 H
#720000
b10100 4
b10100 P
b10000 "
b10000 A
b10000 K
b10000 ^
b110 '
0#
#724000
b100000 @
b100000 B
b100000 M
b100000 9
b100000 O
b100000 Y
b100000 Z
b0xxxx ,
b0xxxx U
b10000100000001111101101 W
b1101 2
b1101 V
b11111000010000100000001111101101 8
b11111000010000100000001111101101 _
#744000
b100000 >
b100000 E
b100000 F
#780000
1#
#800000
b0 ;
b0 S
b0 !
b0 :
b0 H
#840000
b11000 4
b11000 P
b10100 "
b10100 A
b10100 K
b10100 ^
b111 '
0#
#844000
b100000 ;
b100000 S
bx +
bx X
bx ]
b1 ?
b1 D
b1 \
0=
07
06
01
bx @
bx B
b10110000 M
b10110000 9
b10110000 O
b10110000 Y
b10110000 Z
b1011 ,
b1011 U
b10000010110000000101001010 W
b10101010000 3
b10101010000 [
b1010 -
b1010 T
b1010 2
b1010 V
b10101010000010110000000101001010 8
b10101010000010110000000101001010 _
#846000
b101 @
b101 B
b101 /
b101 G
b101 R
b1010 0
b1010 C
b1010 Q
#864000
bx ;
bx S
bx >
bx E
bx F
#865000
x)
#866000
b1111 ;
b1111 S
b1111 >
b1111 E
b1111 F
#867000
0)
#900000
1#
#960000
b11100 4
b11100 P
b11000 "
b11000 A
b11000 K
b11000 ^
b1000 '
0#
#964000
b0 ?
b0 D
b0 \
b1010 ,
b1010 U
b10000010100000000110001100 W
b10001010000 3
b10001010000 [
b1100 -
b1100 T
b1100 2
b1100 V
b10001010000010100000000110001100 8
b10001010000010100000000110001100 _
#966000
b1111 @
b1111 B
b1111 /
b1111 G
b1111 R
b111111111011111010100111110111101010110110111110111011111111 0
b111111111011111010100111110111101010110110111110111011111111 C
b111111111011111010100111110111101010110110111110111011111111 Q
#984000
b0 ;
b0 S
b0 >
b0 E
b0 F
#985000
1)
#986000
b1111 ;
b1111 S
b1111 >
b1111 E
b1111 F
#987000
0)
#1020000
1#
#1080000
b100000 4
b100000 P
b11100 "
b11100 A
b11100 K
b11100 ^
b1001 '
0#
#1084000
b10000 M
b10000 9
b10000 O
b10000 Y
b10000 Z
b0xxxx ;
b0xxxx S
b11 +
b11 X
b11 ]
b111 ?
b111 D
b111 \
0.
x7
1<
11
b1100 ,
b1100 U
b10001100 W
b10110100000 3
b10110100000 [
b100 -
b100 T
b10110100000000000000000010001100 8
b10110100000000000000000010001100 _
#1086000
bx 0
bx C
bx Q
#1140000
1#
#1200000
b100100 4
b100100 P
b100000 "
b100000 A
b100000 K
b100000 ^
b1010 '
0#
#1204000
b1111 ;
b1111 S
bx +
bx X
bx ]
b10 ?
b10 D
b10 \
1.
07
0<
01
b10010000000110100 M
b10010000000110100 9
b10010000000110100 O
b10010000000110100 Y
b10010000000110100 Z
b1001 ,
b1001 U
b11000010010000000110101101 W
b10001011000 3
b10001011000 [
b1101 -
b1101 T
b1101 2
b1101 V
b10001011000010010000000110101101 8
b10001011000010010000000110101101 _
#1206000
b1 @
b1 B
b1 /
b1 G
b1 R
b0 0
b0 C
b0 Q
#1224000
bx ;
bx S
bx >
bx E
bx F
#1225000
x)
#1226000
b1 ;
b1 S
b1 >
b1 E
b1 F
#1227000
0)
#1260000
1#
#1320000
b101000 4
b101000 P
b100100 "
b100100 A
b100100 K
b100100 ^
b1011 '
0#
#1324000
b110 ?
b110 D
b110 \
b11000010010000000110001100 W
b11001011000 3
b11001011000 [
b1100 -
b1100 T
b1100 2
b1100 V
b11001011000010010000000110001100 8
b11001011000010010000000110001100 _
#1326000
b1111 0
b1111 C
b1111 Q
#1344000
b1111111111111111111111111111111111111111111111111111111111111111 ;
b1111111111111111111111111111111111111111111111111111111111111111 S
b1111111111111111111111111111111111111111111111111111111111111111 >
b1111111111111111111111111111111111111111111111111111111111111111 E
b1111111111111111111111111111111111111111111111111111111111111111 F
#1346000
b1110 ;
b1110 S
b1110 >
b1110 E
b1110 F
#1380000
1#
#1440000
b101100 4
b101100 P
b101000 "
b101000 A
b101000 K
b101000 ^
b1100 '
0#
#1444000
b11100 4
b11100 P
b1111111111111111111111111111111111111111111111111111111111110100 N
b1111111111111111111111111111111111111111111111111111111111110100 M
b1111111111111111111111111111111111111111111111111111111111110100 9
b1111111111111111111111111111111111111111111111111111111111110100 O
b1111111111111111111111111111111111111111111111111111111111110100 Y
b1111111111111111111111111111111111111111111111111111111111110100 Z
bx0x0x @
bx0x0x B
b0xxx0 ;
b0xxx0 S
1L
b10 +
b10 X
b10 ]
bx ?
bx D
bx \
0.
x=
x7
x<
1*
x1
b111x1 ,
b111x1 U
b11111111111111111111111101 W
b10111111 3
b10111111 [
b11111 -
b11111 T
b11101 2
b11101 V
b10111111111111111111111111101 8
b10111111111111111111111111101 _
#1446000
bx @
bx B
bx /
bx G
bx R
b0 0
b0 C
b0 Q
#1500000
1#
#1560000
b10000 4
b10000 P
b11100 "
b11100 A
b11100 K
b11100 ^
b1101 '
0#
#1564000
0L
b11 +
b11 X
b11 ]
b111 ?
b111 D
b111 \
0=
1<
0*
11
b100000 4
b100000 P
b100 N
b10000 M
b10000 9
b10000 O
b10000 Y
b10000 Z
b1100 ,
b1100 U
b10001100 W
b10110100000 3
b10110100000 [
b100 -
b100 T
b1100 2
b1100 V
b10110100000000000000000010001100 8
b10110100000000000000000010001100 _
#1566000
b1110 @
b1110 B
b1110 /
b1110 G
b1110 R
bx 0
bx C
bx Q
#1584000
bx ;
bx S
bx >
bx E
bx F
#1585000
bx 4
bx P
b0x0x00 N
xL
x)
#1586000
b0xxx0 ;
b0xxx0 S
b1110 >
b1110 E
b1110 F
#1587000
b100000 4
b100000 P
b100 N
0L
0)
#1620000
1#
#1680000
b100100 4
b100100 P
b100000 "
b100000 A
b100000 K
b100000 ^
b1110 '
0#
#1684000
b1110 ;
b1110 S
bx +
bx X
bx ]
b10 ?
b10 D
b10 \
1.
07
0<
01
b10010000000110100 M
b10010000000110100 9
b10010000000110100 O
b10010000000110100 Y
b10010000000110100 Z
b1001 ,
b1001 U
b11000010010000000110101101 W
b10001011000 3
b10001011000 [
b1101 -
b1101 T
b1101 2
b1101 V
b10001011000010010000000110101101 8
b10001011000010010000000110101101 _
#1686000
b1 @
b1 B
b1 /
b1 G
b1 R
b1 0
b1 C
b1 Q
#1704000
bx ;
bx S
bx >
bx E
bx F
#1705000
x)
#1706000
b10 ;
b10 S
b10 >
b10 E
b10 F
#1707000
0)
#1740000
1#
#1800000
b101000 4
b101000 P
b100100 "
b100100 A
b100100 K
b100100 ^
b1111 '
0#
#1804000
b110 ?
b110 D
b110 \
b11000010010000000110001100 W
b11001011000 3
b11001011000 [
b1100 -
b1100 T
b1100 2
b1100 V
b11001011000010010000000110001100 8
b11001011000010010000000110001100 _
#1806000
b1110 0
b1110 C
b1110 Q
#1824000
b0 ;
b0 S
b0 >
b0 E
b0 F
#1825000
1)
#1826000
b1101 ;
b1101 S
b1101 >
b1101 E
b1101 F
#1827000
0)
#1860000
1#
#1920000
b101100 4
b101100 P
b101000 "
b101000 A
b101000 K
b101000 ^
b10000 '
0#
#1924000
b11100 4
b11100 P
b1111111111111111111111111111111111111111111111111111111111110100 N
b1111111111111111111111111111111111111111111111111111111111110100 M
b1111111111111111111111111111111111111111111111111111111111110100 9
b1111111111111111111111111111111111111111111111111111111111110100 O
b1111111111111111111111111111111111111111111111111111111111110100 Y
b1111111111111111111111111111111111111111111111111111111111110100 Z
bx0x0x @
bx0x0x B
b0xx0x ;
b0xx0x S
1L
b10 +
b10 X
b10 ]
bx ?
bx D
bx \
0.
x=
x7
x<
1*
x1
b111x1 ,
b111x1 U
b11111111111111111111111101 W
b10111111 3
b10111111 [
b11111 -
b11111 T
b11101 2
b11101 V
b10111111111111111111111111101 8
b10111111111111111111111111101 _
#1926000
bx @
bx B
bx /
bx G
bx R
b0 0
b0 C
b0 Q
#1980000
1#
#2040000
b10000 4
b10000 P
b11100 "
b11100 A
b11100 K
b11100 ^
b10001 '
0#
#2044000
0L
b11 +
b11 X
b11 ]
b111 ?
b111 D
b111 \
0=
1<
0*
11
b100000 4
b100000 P
b100 N
b10000 M
b10000 9
b10000 O
b10000 Y
b10000 Z
b1100 ,
b1100 U
b10001100 W
b10110100000 3
b10110100000 [
b100 -
b100 T
b1100 2
b1100 V
b10110100000000000000000010001100 8
b10110100000000000000000010001100 _
#2046000
b1101 @
b1101 B
b1101 /
b1101 G
b1101 R
bx 0
bx C
bx Q
#2064000
bx ;
bx S
bx >
bx E
bx F
#2065000
bx 4
bx P
b0x0x00 N
xL
x)
#2066000
b0xx0x ;
b0xx0x S
b1101 >
b1101 E
b1101 F
#2067000
b100000 4
b100000 P
b100 N
0L
0)
#2100000
1#
#2160000
b100100 4
b100100 P
b100000 "
b100000 A
b100000 K
b100000 ^
b10010 '
0#
#2164000
b1101 ;
b1101 S
bx +
bx X
bx ]
b10 ?
b10 D
b10 \
1.
07
0<
01
b10010000000110100 M
b10010000000110100 9
b10010000000110100 O
b10010000000110100 Y
b10010000000110100 Z
b1001 ,
b1001 U
b11000010010000000110101101 W
b10001011000 3
b10001011000 [
b1101 -
b1101 T
b1101 2
b1101 V
b10001011000010010000000110101101 8
b10001011000010010000000110101101 _
#2166000
b1 @
b1 B
b1 /
b1 G
b1 R
b10 0
b10 C
b10 Q
#2184000
bx ;
bx S
bx >
bx E
bx F
#2185000
x)
#2186000
b11 ;
b11 S
b11 >
b11 E
b11 F
#2187000
0)
#2220000
1#
#2280000
b101000 4
b101000 P
b100100 "
b100100 A
b100100 K
b100100 ^
b10011 '
0#
#2284000
b110 ?
b110 D
b110 \
b11000010010000000110001100 W
b11001011000 3
b11001011000 [
b1100 -
b1100 T
b1100 2
b1100 V
b11001011000010010000000110001100 8
b11001011000010010000000110001100 _
#2286000
b1101 0
b1101 C
b1101 Q
#2304000
b1 ;
b1 S
b1 >
b1 E
b1 F
#2306000
b1100 ;
b1100 S
b1100 >
b1100 E
b1100 F
#2340000
1#
#2400000
b101100 4
b101100 P
b101000 "
b101000 A
b101000 K
b101000 ^
b10100 '
0#
#2404000
b11100 4
b11100 P
b1111111111111111111111111111111111111111111111111111111111110100 N
b1111111111111111111111111111111111111111111111111111111111110100 M
b1111111111111111111111111111111111111111111111111111111111110100 9
b1111111111111111111111111111111111111111111111111111111111110100 O
b1111111111111111111111111111111111111111111111111111111111110100 Y
b1111111111111111111111111111111111111111111111111111111111110100 Z
bx0x0x @
bx0x0x B
b0xx00 ;
b0xx00 S
1L
b10 +
b10 X
b10 ]
bx ?
bx D
bx \
0.
x=
x7
x<
1*
x1
b111x1 ,
b111x1 U
b11111111111111111111111101 W
b10111111 3
b10111111 [
b11111 -
b11111 T
b11101 2
b11101 V
b10111111111111111111111111101 8
b10111111111111111111111111101 _
#2406000
bx @
bx B
bx /
bx G
bx R
b0 0
b0 C
b0 Q
#2460000
1#
#2520000
b10000 4
b10000 P
b11100 "
b11100 A
b11100 K
b11100 ^
b10101 '
0#
#2524000
0L
b11 +
b11 X
b11 ]
b111 ?
b111 D
b111 \
0=
1<
0*
11
b100000 4
b100000 P
b100 N
b10000 M
b10000 9
b10000 O
b10000 Y
b10000 Z
b1100 ,
b1100 U
b10001100 W
b10110100000 3
b10110100000 [
b100 -
b100 T
b1100 2
b1100 V
b10110100000000000000000010001100 8
b10110100000000000000000010001100 _
#2526000
b1100 @
b1100 B
b1100 /
b1100 G
b1100 R
bx 0
bx C
bx Q
#2544000
bx ;
bx S
bx >
bx E
bx F
#2545000
bx 4
bx P
b0x0x00 N
xL
x)
#2546000
b0xx00 ;
b0xx00 S
b1100 >
b1100 E
b1100 F
#2547000
b100000 4
b100000 P
b100 N
0L
0)
#2580000
1#
#2640000
b100100 4
b100100 P
b100000 "
b100000 A
b100000 K
b100000 ^
b10110 '
0#
#2644000
b1100 ;
b1100 S
bx +
bx X
bx ]
b10 ?
b10 D
b10 \
1.
07
0<
01
b10010000000110100 M
b10010000000110100 9
b10010000000110100 O
b10010000000110100 Y
b10010000000110100 Z
b1001 ,
b1001 U
b11000010010000000110101101 W
b10001011000 3
b10001011000 [
b1101 -
b1101 T
b1101 2
b1101 V
b10001011000010010000000110101101 8
b10001011000010010000000110101101 _
#2646000
b1 @
b1 B
b1 /
b1 G
b1 R
b11 0
b11 C
b11 Q
#2664000
bx ;
bx S
bx >
bx E
bx F
#2665000
x)
#2666000
b100 ;
b100 S
b100 >
b100 E
b100 F
#2667000
0)
#2700000
1#
#2760000
b101000 4
b101000 P
b100100 "
b100100 A
b100100 K
b100100 ^
b10111 '
0#
#2764000
b110 ?
b110 D
b110 \
b11000010010000000110001100 W
b11001011000 3
b11001011000 [
b1100 -
b1100 T
b1100 2
b1100 V
b11001011000010010000000110001100 8
b11001011000010010000000110001100 _
#2766000
b1100 0
b1100 C
b1100 Q
#2784000
b10 ;
b10 S
b10 >
b10 E
b10 F
#2786000
b1011 ;
b1011 S
b1011 >
b1011 E
b1011 F
#2820000
1#
#2880000
b101100 4
b101100 P
b101000 "
b101000 A
b101000 K
b101000 ^
b11000 '
0#
#2884000
b11100 4
b11100 P
b1111111111111111111111111111111111111111111111111111111111110100 N
b1111111111111111111111111111111111111111111111111111111111110100 M
b1111111111111111111111111111111111111111111111111111111111110100 9
b1111111111111111111111111111111111111111111111111111111111110100 O
b1111111111111111111111111111111111111111111111111111111111110100 Y
b1111111111111111111111111111111111111111111111111111111111110100 Z
bx0x0x @
bx0x0x B
b0x0xx ;
b0x0xx S
1L
b10 +
b10 X
b10 ]
bx ?
bx D
bx \
0.
x=
x7
x<
1*
x1
b111x1 ,
b111x1 U
b11111111111111111111111101 W
b10111111 3
b10111111 [
b11111 -
b11111 T
b11101 2
b11101 V
b10111111111111111111111111101 8
b10111111111111111111111111101 _
#2886000
bx @
bx B
bx /
bx G
bx R
b0 0
b0 C
b0 Q
#2940000
1#
#3000000
b10000 4
b10000 P
b11100 "
b11100 A
b11100 K
b11100 ^
b11001 '
0#
#3004000
0L
b11 +
b11 X
b11 ]
b111 ?
b111 D
b111 \
0=
1<
0*
11
b100000 4
b100000 P
b100 N
b10000 M
b10000 9
b10000 O
b10000 Y
b10000 Z
b1100 ,
b1100 U
b10001100 W
b10110100000 3
b10110100000 [
b100 -
b100 T
b1100 2
b1100 V
b10110100000000000000000010001100 8
b10110100000000000000000010001100 _
#3006000
b1011 @
b1011 B
b1011 /
b1011 G
b1011 R
bx 0
bx C
bx Q
#3024000
bx ;
bx S
bx >
bx E
bx F
#3025000
bx 4
bx P
b0x0x00 N
xL
x)
#3026000
b0x0xx ;
b0x0xx S
b1011 >
b1011 E
b1011 F
#3027000
b100000 4
b100000 P
b100 N
0L
0)
#3060000
1#
#3120000
b100100 4
b100100 P
b100000 "
b100000 A
b100000 K
b100000 ^
b11010 '
0#
#3124000
b1011 ;
b1011 S
bx +
bx X
bx ]
b10 ?
b10 D
b10 \
1.
07
0<
01
b10010000000110100 M
b10010000000110100 9
b10010000000110100 O
b10010000000110100 Y
b10010000000110100 Z
b1001 ,
b1001 U
b11000010010000000110101101 W
b10001011000 3
b10001011000 [
b1101 -
b1101 T
b1101 2
b1101 V
b10001011000010010000000110101101 8
b10001011000010010000000110101101 _
#3126000
b1 @
b1 B
b1 /
b1 G
b1 R
b100 0
b100 C
b100 Q
#3144000
bx ;
bx S
bx >
bx E
bx F
#3145000
x)
#3146000
b101 ;
b101 S
b101 >
b101 E
b101 F
#3147000
0)
#3180000
1#
#3240000
b101000 4
b101000 P
b100100 "
b100100 A
b100100 K
b100100 ^
b11011 '
0#
#3244000
b110 ?
b110 D
b110 \
b11000010010000000110001100 W
b11001011000 3
b11001011000 [
b1100 -
b1100 T
b1100 2
b1100 V
b11001011000010010000000110001100 8
b11001011000010010000000110001100 _
#3246000
b1011 0
b1011 C
b1011 Q
#3264000
b11 ;
b11 S
b11 >
b11 E
b11 F
#3266000
b1010 ;
b1010 S
b1010 >
b1010 E
b1010 F
#3300000
1#
#3360000
b101100 4
b101100 P
b101000 "
b101000 A
b101000 K
b101000 ^
b11100 '
0#
#3364000
b11100 4
b11100 P
b1111111111111111111111111111111111111111111111111111111111110100 N
b1111111111111111111111111111111111111111111111111111111111110100 M
b1111111111111111111111111111111111111111111111111111111111110100 9
b1111111111111111111111111111111111111111111111111111111111110100 O
b1111111111111111111111111111111111111111111111111111111111110100 Y
b1111111111111111111111111111111111111111111111111111111111110100 Z
bx0x0x @
bx0x0x B
b0x0x0 ;
b0x0x0 S
1L
b10 +
b10 X
b10 ]
bx ?
bx D
bx \
0.
x=
x7
x<
1*
x1
b111x1 ,
b111x1 U
b11111111111111111111111101 W
b10111111 3
b10111111 [
b11111 -
b11111 T
b11101 2
b11101 V
b10111111111111111111111111101 8
b10111111111111111111111111101 _
#3366000
bx @
bx B
bx /
bx G
bx R
b0 0
b0 C
b0 Q
#3420000
1#
#3480000
b10000 4
b10000 P
b11100 "
b11100 A
b11100 K
b11100 ^
b11101 '
0#
#3484000
0L
b11 +
b11 X
b11 ]
b111 ?
b111 D
b111 \
0=
1<
0*
11
b100000 4
b100000 P
b100 N
b10000 M
b10000 9
b10000 O
b10000 Y
b10000 Z
b1100 ,
b1100 U
b10001100 W
b10110100000 3
b10110100000 [
b100 -
b100 T
b1100 2
b1100 V
b10110100000000000000000010001100 8
b10110100000000000000000010001100 _
#3486000
b1010 @
b1010 B
b1010 /
b1010 G
b1010 R
bx 0
bx C
bx Q
#3504000
bx ;
bx S
bx >
bx E
bx F
#3505000
bx 4
bx P
b0x0x00 N
xL
x)
#3506000
b0x0x0 ;
b0x0x0 S
b1010 >
b1010 E
b1010 F
#3507000
b100000 4
b100000 P
b100 N
0L
0)
#3540000
1#
#3600000
b100100 4
b100100 P
b100000 "
b100000 A
b100000 K
b100000 ^
b11110 '
0#
#3604000
b1010 ;
b1010 S
bx +
bx X
bx ]
b10 ?
b10 D
b10 \
1.
07
0<
01
b10010000000110100 M
b10010000000110100 9
b10010000000110100 O
b10010000000110100 Y
b10010000000110100 Z
b1001 ,
b1001 U
b11000010010000000110101101 W
b10001011000 3
b10001011000 [
b1101 -
b1101 T
b1101 2
b1101 V
b10001011000010010000000110101101 8
b10001011000010010000000110101101 _
#3606000
b1 @
b1 B
b1 /
b1 G
b1 R
b101 0
b101 C
b101 Q
#3624000
bx ;
bx S
bx >
bx E
bx F
#3625000
x)
#3626000
b110 ;
b110 S
b110 >
b110 E
b110 F
#3627000
0)
#3660000
1#
#3720000
b101000 4
b101000 P
b100100 "
b100100 A
b100100 K
b100100 ^
b11111 '
0#
#3724000
b110 ?
b110 D
b110 \
b11000010010000000110001100 W
b11001011000 3
b11001011000 [
b1100 -
b1100 T
b1100 2
b1100 V
b11001011000010010000000110001100 8
b11001011000010010000000110001100 _
#3726000
b1010 0
b1010 C
b1010 Q
#3744000
b100 ;
b100 S
b100 >
b100 E
b100 F
#3746000
b1001 ;
b1001 S
b1001 >
b1001 E
b1001 F
#3780000
1#
#3840000
b101100 4
b101100 P
b101000 "
b101000 A
b101000 K
b101000 ^
b100000 '
0#
#3844000
b11100 4
b11100 P
b1111111111111111111111111111111111111111111111111111111111110100 N
b1111111111111111111111111111111111111111111111111111111111110100 M
b1111111111111111111111111111111111111111111111111111111111110100 9
b1111111111111111111111111111111111111111111111111111111111110100 O
b1111111111111111111111111111111111111111111111111111111111110100 Y
b1111111111111111111111111111111111111111111111111111111111110100 Z
bx0x0x @
bx0x0x B
b0x00x ;
b0x00x S
1L
b10 +
b10 X
b10 ]
bx ?
bx D
bx \
0.
x=
x7
x<
1*
x1
b111x1 ,
b111x1 U
b11111111111111111111111101 W
b10111111 3
b10111111 [
b11111 -
b11111 T
b11101 2
b11101 V
b10111111111111111111111111101 8
b10111111111111111111111111101 _
#3846000
bx @
bx B
bx /
bx G
bx R
b0 0
b0 C
b0 Q
#3900000
1#
#3960000
b10000 4
b10000 P
b11100 "
b11100 A
b11100 K
b11100 ^
b100001 '
0#
#3964000
0L
b11 +
b11 X
b11 ]
b111 ?
b111 D
b111 \
0=
1<
0*
11
b100000 4
b100000 P
b100 N
b10000 M
b10000 9
b10000 O
b10000 Y
b10000 Z
b1100 ,
b1100 U
b10001100 W
b10110100000 3
b10110100000 [
b100 -
b100 T
b1100 2
b1100 V
b10110100000000000000000010001100 8
b10110100000000000000000010001100 _
#3966000
b1001 @
b1001 B
b1001 /
b1001 G
b1001 R
bx 0
bx C
bx Q
#3984000
bx ;
bx S
bx >
bx E
bx F
#3985000
bx 4
bx P
b0x0x00 N
xL
x)
#3986000
b0x00x ;
b0x00x S
b1001 >
b1001 E
b1001 F
#3987000
b100000 4
b100000 P
b100 N
0L
0)
#4020000
1#
#4080000
b100100 4
b100100 P
b100000 "
b100000 A
b100000 K
b100000 ^
b100010 '
0#
#4084000
b1001 ;
b1001 S
bx +
bx X
bx ]
b10 ?
b10 D
b10 \
1.
07
0<
01
b10010000000110100 M
b10010000000110100 9
b10010000000110100 O
b10010000000110100 Y
b10010000000110100 Z
b1001 ,
b1001 U
b11000010010000000110101101 W
b10001011000 3
b10001011000 [
b1101 -
b1101 T
b1101 2
b1101 V
b10001011000010010000000110101101 8
b10001011000010010000000110101101 _
#4086000
b1 @
b1 B
b1 /
b1 G
b1 R
b110 0
b110 C
b110 Q
#4104000
bx ;
bx S
bx >
bx E
bx F
#4105000
x)
#4106000
b111 ;
b111 S
b111 >
b111 E
b111 F
#4107000
0)
#4140000
1#
#4200000
b101000 4
b101000 P
b100100 "
b100100 A
b100100 K
b100100 ^
b100011 '
0#
#4204000
b110 ?
b110 D
b110 \
b11000010010000000110001100 W
b11001011000 3
b11001011000 [
b1100 -
b1100 T
b1100 2
b1100 V
b11001011000010010000000110001100 8
b11001011000010010000000110001100 _
#4206000
b1001 0
b1001 C
b1001 Q
#4224000
b101 ;
b101 S
b101 >
b101 E
b101 F
#4226000
b1000 ;
b1000 S
b1000 >
b1000 E
b1000 F
#4260000
1#
#4320000
b101100 4
b101100 P
b101000 "
b101000 A
b101000 K
b101000 ^
b100100 '
0#
#4324000
b11100 4
b11100 P
b1111111111111111111111111111111111111111111111111111111111110100 N
b1111111111111111111111111111111111111111111111111111111111110100 M
b1111111111111111111111111111111111111111111111111111111111110100 9
b1111111111111111111111111111111111111111111111111111111111110100 O
b1111111111111111111111111111111111111111111111111111111111110100 Y
b1111111111111111111111111111111111111111111111111111111111110100 Z
bx0x0x @
bx0x0x B
b0x000 ;
b0x000 S
1L
b10 +
b10 X
b10 ]
bx ?
bx D
bx \
0.
x=
x7
x<
1*
x1
b111x1 ,
b111x1 U
b11111111111111111111111101 W
b10111111 3
b10111111 [
b11111 -
b11111 T
b11101 2
b11101 V
b10111111111111111111111111101 8
b10111111111111111111111111101 _
#4326000
bx @
bx B
bx /
bx G
bx R
b0 0
b0 C
b0 Q
#4380000
1#
#4440000
b10000 4
b10000 P
b11100 "
b11100 A
b11100 K
b11100 ^
b100101 '
0#
